{
  "photos": {
    "page": 1,
    "pages": 21379,
    "perpage": 10,
    "total": "213782",
    "photo": [
      {
        "id": "47454329382",
        "owner": "38144390@N04",
        "secret": "8e4d70f9c2",
        "server": "7899",
        "farm": 8,
        "title": "Stortinget | Canon F-1N",
        "ispublic": 1,
        "isfriend": 0,
        "isfamily": 0,
        "dateupload": "1554043790",
        "datetaken": "2019-03-31 13:51:32",
        "datetakengranularity": 0,
        "datetakenunknown": "1",
        "ownername": "Bernt Sønvisen",
        "views": "1",
        "url_q": "https://farm8.staticflickr.com/7899/47454329382_8e4d70f9c2_q.jpg",
        "height_q": "150",
        "width_q": "150"
      },
      {
        "id": "32564849607",
        "owner": "62950692@N03",
        "secret": "95d2bd13a9",
        "server": "7913",
        "farm": 8,
        "title": "african lion Dembe artis 094A0158",
        "ispublic": 1,
        "isfriend": 0,
        "isfamily": 0,
        "dateupload": "1554043793",
        "datetaken": "2019-02-28 10:33:21",
        "datetakengranularity": "0",
        "datetakenunknown": "0",
        "ownername": "j.a.kok",
        "views": "0",
        "url_q": "https://farm8.staticflickr.com/7913/32564849607_95d2bd13a9_q.jpg",
        "height_q": "150",
        "width_q": "150"
      },
      {
        "id": "47454320052",
        "owner": "62950692@N03",
        "secret": "02df9c7d14",
        "server": "7846",
        "farm": 8,
        "title": "african lion Dembe artis 094A0234",
        "ispublic": 1,
        "isfriend": 0,
        "isfamily": 0,
        "dateupload": "1554043792",
        "datetaken": "2019-02-28 10:34:11",
        "datetakengranularity": "0",
        "datetakenunknown": "0",
        "ownername": "j.a.kok",
        "views": "0",
        "url_q": "https://farm8.staticflickr.com/7846/47454320052_02df9c7d14_q.jpg",
        "height_q": "150",
        "width_q": "150"
      },
      {
        "id": "47454319672",
        "owner": "62950692@N03",
        "secret": "53652e4432",
        "server": "7843",
        "farm": 8,
        "title": "african lion Dembe artis 094A0243",
        "ispublic": 1,
        "isfriend": 0,
        "isfamily": 0,
        "dateupload": "1554043792",
        "datetaken": "2019-02-28 10:34:17",
        "datetakengranularity": "0",
        "datetakenunknown": "0",
        "ownername": "j.a.kok",
        "views": "0",
        "url_q": "https://farm8.staticflickr.com/7843/47454319672_53652e4432_q.jpg",
        "height_q": "150",
        "width_q": "150"
      },
      {
        "id": "47454319142",
        "owner": "62950692@N03",
        "secret": "4f49c26621",
        "server": "7897",
        "farm": 8,
        "title": "african lion Dembe artis 094A0163",
        "ispublic": 1,
        "isfriend": 0,
        "isfamily": 0,
        "dateupload": "1554043792",
        "datetaken": "2019-02-28 10:33:22",
        "datetakengranularity": "0",
        "datetakenunknown": "0",
        "ownername": "j.a.kok",
        "views": "0",
        "url_q": "https://farm8.staticflickr.com/7897/47454319142_4f49c26621_q.jpg",
        "height_q": "150",
        "width_q": "150"
      },
      {
        "id": "47454318652",
        "owner": "62950692@N03",
        "secret": "5af846a06b",
        "server": "7823",
        "farm": 8,
        "title": "african lion Dembe artis 094A0198",
        "ispublic": 1,
        "isfriend": 0,
        "isfamily": 0,
        "dateupload": "1554043793",
        "datetaken": "2019-02-28 10:33:50",
        "datetakengranularity": "0",
        "datetakenunknown": "0",
        "ownername": "j.a.kok",
        "views": "1",
        "url_q": "https://farm8.staticflickr.com/7823/47454318652_5af846a06b_q.jpg",
        "height_q": "150",
        "width_q": "150"
      },
      {
        "id": "47454318352",
        "owner": "62950692@N03",
        "secret": "077ea0dab4",
        "server": "7875",
        "farm": 8,
        "title": "african lion Dembe artis 094A0069",
        "ispublic": 1,
        "isfriend": 0,
        "isfamily": 0,
        "dateupload": "1554043792",
        "datetaken": "2019-02-28 10:30:24",
        "datetakengranularity": "0",
        "datetakenunknown": "0",
        "ownername": "j.a.kok",
        "views": "0",
        "url_q": "https://farm8.staticflickr.com/7875/47454318352_077ea0dab4_q.jpg",
        "height_q": "150",
        "width_q": "150"
      },
      {
        "id": "47454318052",
        "owner": "62950692@N03",
        "secret": "27bc6f4b78",
        "server": "7845",
        "farm": 8,
        "title": "african lion Dembe artis 094A0129",
        "ispublic": 1,
        "isfriend": 0,
        "isfamily": 0,
        "dateupload": "1554043792",
        "datetaken": "2019-02-28 10:31:56",
        "datetakengranularity": "0",
        "datetakenunknown": "0",
        "ownername": "j.a.kok",
        "views": "0",
        "url_q": "https://farm8.staticflickr.com/7845/47454318052_27bc6f4b78_q.jpg",
        "height_q": "150",
        "width_q": "150"
      },
      {
        "id": "47454317852",
        "owner": "62950692@N03",
        "secret": "43953b9413",
        "server": "7815",
        "farm": 8,
        "title": "african lion Dembe artis 094A0143",
        "ispublic": 1,
        "isfriend": 0,
        "isfamily": 0,
        "dateupload": "1554043792",
        "datetaken": "2019-02-28 10:33:16",
        "datetakengranularity": "0",
        "datetakenunknown": "0",
        "ownername": "j.a.kok",
        "views": "0",
        "url_q": "https://farm8.staticflickr.com/7815/47454317852_43953b9413_q.jpg",
        "height_q": "150",
        "width_q": "150"
      },
      {
        "id": "46591440335",
        "owner": "84642844@N00",
        "secret": "777578b9e8",
        "server": "0",
        "farm": 0,
        "title": "20190326_123504",
        "ispublic": 1,
        "isfriend": 0,
        "isfamily": 0,
        "dateupload": "1554043308",
        "datetaken": "2019-03-31 07:42:04",
        "datetakengranularity": 0,
        "datetakenunknown": "1",
        "ownername": "sfrikken",
        "views": "0",
        "url_q": "https://live.staticflickr.com/31337/46591440335_777578b9e8_q.jpg",
        "height_q": "150",
        "width_q": "150"
      }
    ]
  },
  "stat": "ok"
}
